{
    "last": false,
    "totalElements": 20,
    "totalPages": 7,
    "size": 3,
    "number": 0,
    "sort": null,
    "first": true,
    "numberOfElements": 3,
    "content": [
        {
            "id": 1,
            "name": "เส้นใหญ่ผัดซีอิ๊วใส่ไข่",
            "detail": "",
            "thumbnail":"http://fb1-cu.lnwfile.com/_/cu/_raw/y1/dd/lc.jpg",
            "itemData": [
                {
                    "name": "Energy",
                    "unit": "kg.cal",
                    "value": 702.26
                },
                {
                    "name": "Carbohydrate",
                    "unit": "g.",
                    "value": 65.975
                },
                {
                    "name": "Protein",
                    "unit": "g.",
                    "value": 37.635
                },
                {
                    "name": "Fat",
                    "unit": "g.",
                    "value": 31.6875
                },
                {
                    "name": "Sodium",
                    "unit": "mg.",
                    "value": 908.5887
                }
            ],
            "createAt": 1519287776394,
            "updateAt": 1519287776394,
            "deleteAt": 1519287776394
        },
        {
            "id": 1,
            "name": "กระเพาะปลา",
            "detail": "อร่อย",
            "thumbnail": "https://i.ytimg.com/vi/LyZaAaMvd8o/maxresdefault.jpg",
            "itemData": [
                {
                    "name": "Energy",
                    "unit": "kg.cal",
                    "value": 259.1487
                },
                {
                    "name": "Carbohydrate",
                    "unit": "g.",
                    "value": 29.3724
                },
                {
                    "name": "Protein",
                    "unit": "g.",
                    "value": 19.188
                },
                {
                    "name": "Fat",
                    "unit": "g.",
                    "value": 7.2324
                },
                {
                    "name": "Sodium",
                    "unit": "mg.",
                    "value": 908.5887
                }
            ],
            "createAt": 1519287776394,
            "updateAt": 1519287776394,
            "deleteAt": 1519287776394
        },
        {
            "id": 1,
            "name": "แกงจืดวุ้นเส้นหมูสับ",
            "detail": "กะปิ",
            "thumbnail": "https://scm-assets.constant.co/scm/unilever/e9dc924f238fa6cc29465942875fe8f0/42c8b51a-4f83-44ab-ab93-604db6e2c9ec.jpg",
            "itemData": [
                {
                    "name": "Energy",
                    "unit": "kg.cal",
                    "value": 225
                },
                {
                    "name": "Carbohydrate",
                    "unit": "g.",
                    "value": 18
                },
                {
                    "name": "Protein",
                    "unit": "g.",
                    "value": 23
                },
                {
                    "name": "Fat",
                    "unit": "g.",
                    "value": 7
                },
                {
                    "name": "Sodium",
                    "unit": "mg.",
                    "value": 1347
                }
            ],
            "createAt": 1519287776394,
            "updateAt": 1519287776394,
            "deleteAt": 1519287776394
        },
        {
            "id": 1,
            "name": "ไก่ทอด",
            "detail": "หมูเยอรมัน",
            "thumbnail": "https://assets.epicurious.com/photos/57a8a45db10b4fb03f234f34/2:1/w_1260%2Ch_630/southern-fried-chicken.jp",
            "itemData": [
                {
                    "name": "Energy",
                    "unit": "kg.cal",
                    "value": 307.23
                },
                {
                    "name": "Carbohydrate",
                    "unit": "g.",
                    "value": 2.04402
                },
                {
                    "name": "Protein",
                    "unit": "g.",
                    "value":33.80784
                },
                {
                    "name": "Fat",
                    "unit": "g.",
                    "value": 17.20488
                },
                {
                    "name": "Sodium",
                    "unit": "mg.",
                    "value": 111.606
                }
            ],
            "createAt": 1519287776394,
            "updateAt": 1519287776394,
            "deleteAt": 1519287776394
        }
    ]
}