{
    "last": false,
    "totalElements": 20,
    "totalPages": 7,
    "size": 3,
    "number": 0,
    "sort": null,
    "first": true,
    "numberOfElements": 3,
    "content": [
        {
            "id": 1,
            "name": "กะเพราะหมูกรอบ",
            "detail": "กะเพรา",
            "thumbnail": "https://i1.wp.com/www.femmehub.com/wp-content/uploads/2015/04/foods-wallpaper.jpg",
            "itemData": [
                {
                    "name": "Energy",
                    "unit": "kg.cal",
                    "value": 702.26
                },
                {
                    "name": "Carbohydrate",
                    "unit": "g.",
                    "value": 65.975
                },
                {
                    "name": "Protein",
                    "unit": "g.",
                    "value": 37.635
                },
                {
                    "name": "Fat",
                    "unit": "g.",
                    "value": 31.6875
                },
                {
                    "name": "Sodium",
                    "unit": "mg.",
                    "value": 908.5887
                }
            ],
            "createAt": 1519287776394,
            "updateAt": 1519287776394,
            "deleteAt": 1519287776394
        } 
    ]
}